<?xml version="1.0" encoding="utf-8"?>
<svg id="svg2" width="64" height="64" enable-background="new 0 0 87.041 108.445" overflow="visible" version="1.1" viewBox="0 0 64 64" xml:space="preserve" xmlns="http://www.w3.org/2000/svg">
<style type="text/css">
	.st0{fill:#B3B3B3;}
	.st1{fill:#777777;}
</style>
<g>
	<g>
		<path class="st0" d="M58.2,23.3h-2.7V11.8h2.7V23.3z"/>
		<path class="st0" d="M62.6,16.2v2.7H51.2v-2.7H62.6z"/>
	</g>
	<g>
		<path class="st1" d="M28.6,38.9h1.7l-1.7-3.9l-1.2-2.8l-1.5-3.5c-0.1-0.2-0.2-0.4-0.2-0.6c-0.2-0.4-0.4-0.8-0.8-1.2
			c-0.9-0.9-2-1.3-3.3-1.3h-2.7H1.4v26.4h5.1h12.3h2.7c1.4,0,2.5-0.4,3.3-1.3c0.3-0.3,0.5-0.7,0.7-1.2l0.3-0.6l1.5-3.5l-1.2-2.8
			l-1.7-3.9L21,47.1c0,0,0,0,0,0l-0.1,0.2c0,0,0,0.1-0.1,0.1c0,0,0,0,0,0c-0.1,0.1-0.3,0.2-0.6,0.2H6.5V30.3h13.6
			c0.4,0,0.7,0.2,0.8,0.5c0,0,0,0.1,0,0.1l3.5,8.1h1.7H28.6z"/>
		<path class="st0" d="M52,27c-0.9-0.9-2-1.3-3.3-1.3H35.9h-0.6h-2.1c-1.4,0-2.5,0.4-3.3,1.3c-0.3,0.3-0.6,0.7-0.8,1.2l-0.2,0.6
			l-1.5,3.5l1.2,2.8l1.7,3.9h-1.7h-2.4h-1.7l1.7,3.9l1.2,2.8l1.5,3.5l0.3,0.6c0.2,0.4,0.4,0.8,0.8,1.2c0.9,0.9,2,1.3,3.3,1.3h2.7
			h12.8c1.4,0,2.5-0.4,3.3-1.3c0.9-0.9,1.3-2,1.3-3.3V30.4C53.3,29,52.9,27.9,52,27z M48.1,46.8c0,0.5-0.3,0.8-0.8,0.8H34.5
			c-0.3,0-0.4-0.1-0.6-0.2c0,0,0,0-0.1-0.1c0-0.1-0.1-0.1-0.1-0.2l-0.7-1.6l0.2,0.6l-1.8-4.3l-1.3-2.9l2.5-5.8l0.9-2l0.1-0.3l0-0.1
			l0,0c0.1-0.3,0.3-0.5,0.8-0.5h12.8c0.5,0,0.8,0.3,0.8,0.8V46.8z"/>
	</g>
</g>
</svg>
